<svg xmlns="http://www.w3.org/2000/svg" width="16.62" height="16.62" viewBox="0 0 16.62 16.62">
  <g id="Group_6044" data-name="Group 6044" transform="translate(-1275.95 -12.63)">
    <g id="Icon_feather-plus-circle" data-name="Icon feather-plus-circle" transform="translate(1276.45 13.13)">
      <path id="Path_7032" data-name="Path 7032" d="M18.62,10.81A7.81,7.81,0,1,1,10.81,3a7.81,7.81,0,0,1,7.81,7.81Z" transform="translate(-3 -3)" fill="none" stroke="#ffffff" stroke-linecap="round" stroke-linejoin="round" stroke-width="1"/>
      <path id="Path_7033" data-name="Path 7033" d="M18,12v6.248" transform="translate(-10.19 -7.314)" fill="none" stroke="#ffffff" stroke-linecap="round" stroke-linejoin="round" stroke-width="1"/>
      <path id="Path_7034" data-name="Path 7034" d="M12,18h6.248" transform="translate(-7.314 -10.19)" fill="none" stroke="#ffffff" stroke-linecap="round" stroke-linejoin="round" stroke-width="1"/>
    </g>
  </g>
</svg>