<?xml version="1.0" encoding="utf-8"?>
<!-- Generator: Adobe Illustrator 22.1.0, SVG Export Plug-In . SVG Version: 6.00 Build 0)  -->
<svg version="1.1" id="Layer_1" xmlns="http://www.w3.org/2000/svg" xmlns:xlink="http://www.w3.org/1999/xlink" x="0px" y="0px"
	 viewBox="0 0 500 500" style="enable-background:new 0 0 500 500;" xml:space="preserve">
<style type="text/css">
	.st0{fill:none;stroke:#5694B9;stroke-width:1.995;}
</style>
<polygon class="st0" points="316.5,1 1,316.5 1,328.1 328.1,1 "/>
<polygon class="st0" points="304.8,1 1,304.8 1,316.5 316.5,1 "/>
<polygon class="st0" points="351.5,1 1,351.5 1,363.1 363.1,1 "/>
<polygon class="st0" points="328.1,1 1,328.1 1,339.8 339.8,1 "/>
<polygon class="st0" points="339.8,1 1,339.8 1,351.5 351.5,1 "/>
<polygon class="st0" points="293.1,1 1,293.1 1,304.8 304.8,1 "/>
<polygon class="st0" points="258.1,1 1,258.1 1,269.8 269.8,1 "/>
<polygon class="st0" points="246.4,1 1,246.4 1,258.1 258.1,1 "/>
<polygon class="st0" points="269.8,1 1,269.8 1,281.4 281.4,1 "/>
<polygon class="st0" points="479.8,1 1,479.8 1,491.5 491.5,1 "/>
<polygon class="st0" points="409.8,1 1,409.8 1,421.5 421.5,1 "/>
<polygon class="st0" points="444.8,1 1,444.8 1,456.5 456.5,1 "/>
<polygon class="st0" points="363.1,1 1,363.1 1,374.8 374.8,1 "/>
<polygon class="st0" points="433.1,1 1,433.1 1,444.8 444.8,1 "/>
<polygon class="st0" points="468.1,1 1,468.1 1,479.8 479.8,1 "/>
<polygon class="st0" points="456.5,1 1,456.5 1,468.1 468.1,1 "/>
<polygon class="st0" points="421.5,1 1,421.5 1,433.1 433.1,1 "/>
<polygon class="st0" points="386.5,1 1,386.5 1,398.1 398.1,1 "/>
<polygon class="st0" points="374.8,1 1,374.8 1,386.5 386.5,1 "/>
<polygon class="st0" points="398.1,1 1,398.1 1,409.8 409.8,1 "/>
<polygon class="st0" points="234.8,1 1,234.8 1,246.4 246.4,1 "/>
<polygon class="st0" points="281.4,1 1,281.4 1,293.1 293.1,1 "/>
<polygon class="st0" points="60.2,1 1,60.2 1,71.9 71.9,1 "/>
<polygon class="st0" points="36.8,1 1,36.8 1,48.5 48.5,1 "/>
<polygon class="st0" points="48.5,1 1,48.5 1,60.2 60.2,1 "/>
<polygon class="st0" points="95.2,1 1,95.2 1,106.9 106.9,1 "/>
<polygon class="st0" points="83.5,1 1,83.5 1,95.2 95.2,1 "/>
<polygon class="st0" points="71.9,1 1,71.9 1,83.5 83.5,1 "/>
<polygon class="st0" points="1,1 1,1.8 1.8,1 "/>
<polygon class="st0" points="1.8,1 1,1.8 1,13.5 13.5,1 "/>
<polygon class="st0" points="25.2,1 1,25.2 1,36.8 36.8,1 "/>
<polygon class="st0" points="13.5,1 1,13.5 1,25.2 25.2,1 "/>
<polygon class="st0" points="199.8,1 1,199.8 1,211.4 211.4,1 "/>
<polygon class="st0" points="188.1,1 1,188.1 1,199.8 199.8,1 "/>
<polygon class="st0" points="176.4,1 1,176.4 1,188.1 188.1,1 "/>
<polygon class="st0" points="164.8,1 1,164.8 1,176.4 176.4,1 "/>
<polygon class="st0" points="106.9,1 1,106.9 1,118.5 118.5,1 "/>
<polygon class="st0" points="223.1,1 1,223.1 1,234.8 234.8,1 "/>
<polygon class="st0" points="211.4,1 1,211.4 1,223.1 223.1,1 "/>
<polygon class="st0" points="118.5,1 1,118.5 1,129.8 129.8,1 "/>
<polygon class="st0" points="153.1,1 1,153.1 1,164.8 164.8,1 "/>
<polygon class="st0" points="129.8,1 1,129.8 1,141.4 141.4,1 "/>
<polygon class="st0" points="141.4,1 1,141.4 1,153.1 153.1,1 "/>
<polygon class="st0" points="499,413.5 413.5,499 425.2,499 499,425.2 "/>
<polygon class="st0" points="499,308.5 308.5,499 320.2,499 499,320.2 "/>
<polygon class="st0" points="499,366.9 366.9,499 378.5,499 499,378.5 "/>
<polygon class="st0" points="499,331.9 331.9,499 343.5,499 499,343.5 "/>
<polygon class="st0" points="499,343.5 343.5,499 355.2,499 499,355.2 "/>
<polygon class="st0" points="499,355.2 355.2,499 366.9,499 499,366.9 "/>
<polygon class="st0" points="499,320.2 320.2,499 331.9,499 499,331.9 "/>
<polygon class="st0" points="499,296.9 296.9,499 308.5,499 499,308.5 "/>
<polygon class="st0" points="499,273.5 273.5,499 285.2,499 499,285.2 "/>
<polygon class="st0" points="499,261.8 261.8,499 273.5,499 499,273.5 "/>
<polygon class="st0" points="499,285.2 285.2,499 296.9,499 499,296.9 "/>
<polygon class="st0" points="499,436.9 436.9,499 448.5,499 499,448.5 "/>
<polygon class="st0" points="499,378.5 378.5,499 390.2,499 499,390.2 "/>
<polygon class="st0" points="499,460.2 460.2,499 471.9,499 499,471.9 "/>
<polygon class="st0" points="499,448.5 448.5,499 460.2,499 499,460.2 "/>
<polygon class="st0" points="499,499 499,494.8 494.8,499 "/>
<polygon class="st0" points="499,494.8 499,483.1 483.1,499 494.8,499 "/>
<polygon class="st0" points="499,471.9 471.9,499 483.1,499 499,483.1 "/>
<polygon class="st0" points="499,401.9 401.9,499 413.5,499 499,413.5 "/>
<polygon class="st0" points="499,390.2 390.2,499 401.9,499 499,401.9 "/>
<polygon class="st0" points="499,425.2 425.2,499 436.9,499 499,436.9 "/>
<polygon class="st0" points="499,250.2 250.2,499 261.8,499 499,261.8 "/>
<polygon class="st0" points="499,63.5 63.5,499 75.2,499 499,75.2 "/>
<polygon class="st0" points="499,75.2 75.2,499 86.8,499 499,86.8 "/>
<polygon class="st0" points="499,1 491.5,1 1,491.5 1,499 5.1,499 499,5.1 "/>
<polygon class="st0" points="499,86.8 86.8,499 98.5,499 499,98.5 "/>
<polygon class="st0" points="499,238.5 238.5,499 250.2,499 499,250.2 "/>
<polygon class="st0" points="499,98.5 98.5,499 110.2,499 499,110.2 "/>
<polygon class="st0" points="499,16.8 16.8,499 28.5,499 499,28.5 "/>
<polygon class="st0" points="499,40.1 40.1,499 51.8,499 499,51.8 "/>
<polygon class="st0" points="499,110.2 110.2,499 121.8,499 499,121.8 "/>
<polygon class="st0" points="499,5.1 5.1,499 16.8,499 499,16.8 "/>
<polygon class="st0" points="499,28.5 28.5,499 40.1,499 499,40.1 "/>
<polygon class="st0" points="499,51.8 51.8,499 63.5,499 499,63.5 "/>
<polygon class="st0" points="499,203.5 203.5,499 215.2,499 499,215.2 "/>
<polygon class="st0" points="499,191.8 191.8,499 203.5,499 499,203.5 "/>
<polygon class="st0" points="499,180.2 180.2,499 191.8,499 499,191.8 "/>
<polygon class="st0" points="499,215.2 215.2,499 226.8,499 499,226.8 "/>
<polygon class="st0" points="499,226.8 226.8,499 238.5,499 499,238.5 "/>
<polygon class="st0" points="499,168.5 168.5,499 180.2,499 499,180.2 "/>
<polygon class="st0" points="499,133.5 133.5,499 145.2,499 499,145.2 "/>
<polygon class="st0" points="499,145.2 145.2,499 156.8,499 499,156.8 "/>
<polygon class="st0" points="499,121.8 121.8,499 133.5,499 499,133.5 "/>
<polygon class="st0" points="499,156.8 156.8,499 168.5,499 499,168.5 "/>
</svg>
