<svg xmlns="http://www.w3.org/2000/svg" xmlns:xlink="http://www.w3.org/1999/xlink" width="1366" height="2149" viewBox="0 0 1366 2149">
  <defs>
    <clipPath id="clip-path">
      <rect id="Rectangle_253" data-name="Rectangle 253" width="1215" height="624" transform="translate(151 1500)" fill="none"/>
    </clipPath>
    <clipPath id="clip-_1366_Apply_Migrants_1">
      <rect width="1366" height="2149"/>
    </clipPath>
  </defs>
  <g id="_1366_Apply_Migrants_1" data-name="1366 – Apply – Migrants 1" clip-path="url(#clip-_1366_Apply_Migrants_1)">
    <rect width="1366" height="2149" fill="#fff"/>
    <path id="Path_5140" data-name="Path 5140" d="M0,0H1292V144.6H0Z" transform="translate(37 390.745)" fill="rgba(96,167,151,0.2)"/>
    <path id="Path_5139" data-name="Path 5139" d="M5873.078-2799.888l173.594-200.373H5631.823v200.373Z" transform="translate(-5632 3391)" fill="#60a797"/>
    <line id="Line_112" data-name="Line 112" x1="413" y2="476" transform="translate(454.5 251.5)" fill="none" stroke="#fff" stroke-width="4"/>
    <line id="Line_113" data-name="Line 113" x1="413" y2="476" transform="translate(776.5 251.5)" fill="none" stroke="#fff" stroke-width="4"/>
    <text id="Priorities" transform="translate(84 468)" fill="#fff" font-size="26" font-family="Muli-Regular, Muli" letter-spacing="-0.005em"><tspan x="40.052" y="26">Priorities</tspan></text>
    <text id="_1" data-name="1" transform="translate(148 418)" fill="#fff" font-size="44" font-family="Muli-SemiBold, Muli" font-weight="600" letter-spacing="-0.005em"><tspan x="15.3" y="44">1</tspan></text>
    <text id="_2" data-name="2" transform="translate(470 418)" fill="#60a797" font-size="44" font-family="Muli-SemiBold, Muli" font-weight="600" letter-spacing="-0.005em"><tspan x="15.3" y="44">2</tspan></text>
    <text id="_3" data-name="3" transform="translate(797 418)" fill="#60a797" font-size="44" font-family="Muli-SemiBold, Muli" font-weight="600" letter-spacing="-0.005em"><tspan x="15.3" y="44">3</tspan></text>
    <text id="_4" data-name="4" transform="translate(1151 418)" fill="#60a797" font-size="44" font-family="Muli-SemiBold, Muli" font-weight="600" letter-spacing="-0.005em"><tspan x="2.8" y="44">4</tspan></text>
    <text id="Elegibility_criteria_" data-name="Elegibility criteria " transform="translate(393 468)" fill="#60a797" font-size="26" font-family="Muli-Regular, Muli" letter-spacing="-0.005em"><tspan x="0.688" y="26">Elegibility criteria </tspan></text>
    <text id="Success_statistics" data-name="Success statistics" transform="translate(717 468)" fill="#60a797" font-size="26" font-family="Muli-Regular, Muli" letter-spacing="-0.005em"><tspan x="4.487" y="26">Success statistics</tspan></text>
    <text id="Making_the_application" data-name="Making the application" transform="translate(1030 468)" fill="#60a797" font-size="26" font-family="Muli-Regular, Muli" letter-spacing="-0.005em"><tspan x="1.761" y="26">Making the application</tspan></text>
    <g id="ABCT_RGB" transform="translate(36.811 28.883)">
      <path id="Path_2369" data-name="Path 2369" d="M102.678,27.411A21.436,21.436,0,0,0,81.263,6H72.348c-.415,0-.6.175-.6.572v.7c0,.4.185.572.6.572h8.91a19.606,19.606,0,0,1-.018,39.212H72.321c-.42,0-.6.175-.6.572v.7c0,.4.185.572.6.572H83.742a10.1,10.1,0,0,1,0,20.183H68.6l-.042-62.1a.921.921,0,0,0-1.62-.6L4.561,78.468,2.936,80.343a.076.076,0,0,0-.009.092.064.064,0,0,0,.037.032.179.179,0,0,0,.069.009H5.267L66.716,9.467l.037,60.544a.926.926,0,0,0,.923.923H83.742A11.726,11.726,0,0,0,95.213,59,11.956,11.956,0,0,0,87.85,47.852,21.519,21.519,0,0,0,102.678,27.411Z" transform="translate(-2.915 -6)" fill="#60a797"/>
      <g id="Group_3271" data-name="Group 3271" transform="translate(109.189 11.199)">
        <path id="Path_2370" data-name="Path 2370" d="M262.967,51.615l-.836-.277a.735.735,0,0,0-.577,0,.8.8,0,0,0-.346.512c-1.177,4.044-3.4,5.692-7.682,5.692-4.972,0-7.709-2.738-7.709-7.709V40.121c0-4.972,2.751-7.709,7.751-7.709,4.321,0,6.523,1.616,7.6,5.581.194.577.572.536.914.425l.776-.231a.689.689,0,0,0,.462-.314.72.72,0,0,0-.023-.6c-1.32-4.847-4.335-7.012-9.778-7.012-6.366,0-10.022,3.61-10.022,9.9v9.63c0,6.228,3.744,9.944,10.022,9.944,5.378,0,8.337-2.142,9.893-7.165A.671.671,0,0,0,262.967,51.615Z" transform="translate(-241.626 -30.26)" fill="#706f6f"/>
        <path id="Path_2371" data-name="Path 2371" d="M313.289,31.44h-.9c-.485,0-.7.231-.7.743v12.15H297.127V32.183c0-.512-.217-.743-.7-.743h-.863c-.485,0-.7.231-.7.743V59.074c0,.512.217.743.7.743h.863c.485,0,.7-.231.7-.743V46.526h14.556V59.074c0,.512.217.743.7.743h.9c.485,0,.7-.231.7-.743V32.183C313.99,31.671,313.773,31.44,313.289,31.44Z" transform="translate(-269.276 -30.895)" fill="#706f6f"/>
        <path id="Path_2372" data-name="Path 2372" d="M364.8,59.591h.785a.668.668,0,0,0,.572-.231.6.6,0,0,0,0-.554L356.09,31.648a.789.789,0,0,0-.849-.628h-.863a.8.8,0,0,0-.886.623L343.432,58.8a.611.611,0,0,0,0,.568A.668.668,0,0,0,344,59.6h.748c.549,0,.877-.092,1.043-.586l3.13-8.536h11.744L363.753,59C363.919,59.5,364.224,59.591,364.8,59.591Zm-4.889-11.158H349.641L354.6,34.847c.06-.231.12-.475.166-.711.06.235.134.48.217.729Z" transform="translate(-295.384 -30.669)" fill="#706f6f"/>
        <path id="Path_2373" data-name="Path 2373" d="M400.681,59.817h.863c.485,0,.7-.231.7-.743V47.51h5.821c2.608,0,3.915.919,5.175,3.638l3.693,8.1c.217.489.457.568,1.076.568h.863a.558.558,0,0,0,.522-.249.575.575,0,0,0-.037-.586l-4.012-8.73a6.592,6.592,0,0,0-2.53-3.107c3.684-.609,5.854-3.4,5.854-7.608,0-5.069-2.881-8.093-7.7-8.093h-10.3c-.485,0-.7.231-.7.743V59.074C399.979,59.586,400.2,59.817,400.681,59.817ZM410.9,45.437h-8.656V33.6H410.9c3.476,0,5.47,2.165,5.47,5.941C416.372,43.23,414.327,45.437,410.9,45.437Z" transform="translate(-325.863 -30.895)" fill="#706f6f"/>
        <path id="Path_2374" data-name="Path 2374" d="M450.835,59.817h.942a.617.617,0,0,0,.665-.7V32.1a.589.589,0,0,0-.665-.665h-.942a.589.589,0,0,0-.665.665V59.115C450.17,59.586,450.392,59.817,450.835,59.817Z" transform="translate(-352.888 -30.895)" fill="#706f6f"/>
        <path id="Path_2375" data-name="Path 2375" d="M481.765,32.89v-.706c0-.512-.217-.743-.7-.743H463.452c-.485,0-.7.231-.7.743v.706a.611.611,0,0,0,.7.7h7.672v25.52a.611.611,0,0,0,.7.7h.863a.611.611,0,0,0,.7-.7V33.6h7.672A.614.614,0,0,0,481.765,32.89Z" transform="translate(-359.661 -30.895)" fill="#706f6f"/>
        <path id="Path_2376" data-name="Path 2376" d="M509.69,31.638a.793.793,0,0,0-.849-.628h-.863a.8.8,0,0,0-.886.623L497.032,58.787a.611.611,0,0,0,0,.568.668.668,0,0,0,.572.231h.748c.549,0,.877-.092,1.043-.586l3.125-8.536H514.26l3.088,8.531c.166.5.471.591,1.043.591h.785a.668.668,0,0,0,.572-.231.6.6,0,0,0,0-.554Zm3.818,16.79H503.241L508.2,34.842c.06-.231.12-.475.166-.711.06.235.134.48.217.729Z" transform="translate(-378.076 -30.664)" fill="#706f6f"/>
        <path id="Path_2377" data-name="Path 2377" d="M567.768,45.16c2.276-1.094,3.471-3.3,3.471-6.412,0-4.506-2.816-7.308-7.349-7.308h-9.948c-.485,0-.7.231-.7.743V59.074c0,.512.217.743.7.743h10.5c4.824,0,7.7-2.862,7.7-7.663C572.144,48.562,570.6,46.1,567.768,45.16Zm-12.252-.826V33.6h8.3c3.352,0,5.193,1.888,5.193,5.313,0,3.5-1.8,5.429-5.078,5.429h-8.416ZM569.873,52c0,3.6-2.008,5.664-5.507,5.664h-8.85V46.369h9.007C567.925,46.369,569.873,48.424,569.873,52Z" transform="translate(-408.377 -30.895)" fill="#706f6f"/>
        <path id="Path_2378" data-name="Path 2378" d="M617.509,57.661H604.961V32.183c0-.512-.217-.743-.7-.743h-.9c-.6,0-.665.425-.665.743V59.074c0,.319.069.743.665.743h14.154c.6,0,.665-.425.665-.743v-.706C618.173,57.892,617.956,57.661,617.509,57.661Z" transform="translate(-434.999 -30.895)" fill="#706f6f"/>
        <path id="Path_2379" data-name="Path 2379" d="M657.11,57.667H643.621V46.532h11.444c.485,0,.7-.231.7-.743v-.706c0-.494-.235-.743-.7-.743H643.621V33.6H656.64a.611.611,0,0,0,.7-.7v-.706c0-.512-.217-.743-.7-.743H642.052c-.485,0-.7.231-.7.743V59.079c0,.512.217.743.7.743H657.11c.485,0,.7-.231.7-.743v-.706A.614.614,0,0,0,657.11,57.667Z" transform="translate(-455.812 -30.901)" fill="#706f6f"/>
        <path id="Path_2380" data-name="Path 2380" d="M257.753,106.06H240.142c-.485,0-.7.231-.7.743v.706a.611.611,0,0,0,.7.7h7.672v25.52a.611.611,0,0,0,.7.7h.863a.611.611,0,0,0,.7-.7v-25.52h7.672a.611.611,0,0,0,.7-.7V106.8C258.455,106.291,258.238,106.06,257.753,106.06Z" transform="translate(-239.44 -71.068)" fill="#706f6f"/>
        <path id="Path_2381" data-name="Path 2381" d="M303.1,124.867h0a6.569,6.569,0,0,0-2.53-3.107c3.684-.609,5.854-3.4,5.854-7.608,0-5.069-2.881-8.093-7.7-8.093h-10.3c-.485,0-.7.231-.7.743v26.891c0,.512.217.743.7.743h.863c.485,0,.7-.231.7-.743V122.13h5.821c2.608,0,3.915.919,5.175,3.638l3.693,8.1c.217.489.457.568,1.076.568h.863a.559.559,0,0,0,.522-.249.575.575,0,0,0-.037-.586Zm-4.459-4.81h-8.656V108.216h8.656c3.476,0,5.47,2.165,5.47,5.941C304.108,117.85,302.063,120.057,298.638,120.057Z" transform="translate(-265.432 -71.068)" fill="#706f6f"/>
        <path id="Path_2382" data-name="Path 2382" d="M355.594,106.06h-.9a.611.611,0,0,0-.7.7v17.967c0,5.226-2.668,8.1-7.516,8.1s-7.516-2.876-7.516-8.1V106.762a.611.611,0,0,0-.7-.7h-.863a.611.611,0,0,0-.7.7v17.967c0,6.518,3.568,10.258,9.787,10.258,6.241,0,9.824-3.739,9.824-10.258V106.762A.618.618,0,0,0,355.594,106.06Z" transform="translate(-291.795 -71.068)" fill="#706f6f"/>
        <path id="Path_2383" data-name="Path 2383" d="M397.638,118.475h0c-4.3-.531-7.857-1.325-7.857-5.669,0-3.652,2.581-5.743,7.082-5.743,3.795,0,6.071,1.463,7.626,4.921.258.415.512.489.9.291l.785-.272a.617.617,0,0,0,.374-.983c-1.953-4.312-4.847-6.149-9.685-6.149-5.794,0-9.39,3.056-9.39,7.977,0,6.537,5.8,7.308,9.639,7.816,4.229.508,7.465,1.237,7.465,5.512,0,4.026-2.47,5.978-7.552,5.978-3.97,0-6.389-1.713-7.848-5.563a.624.624,0,0,0-.914-.4l-.826.277c-.6.2-.526.646-.42.965,1.69,4.718,4.87,6.915,10.008,6.915,6.454,0,9.865-2.811,9.865-8.134C406.885,120.146,402.319,119.065,397.638,118.475Z" transform="translate(-318.85 -70.427)" fill="#706f6f"/>
        <path id="Path_2384" data-name="Path 2384" d="M451.253,106.06H433.642c-.485,0-.7.231-.7.743v.706a.611.611,0,0,0,.7.7h7.672v25.52a.611.611,0,0,0,.7.7h.863a.611.611,0,0,0,.7-.7v-25.52h7.672a.611.611,0,0,0,.7-.7V106.8C451.955,106.291,451.738,106.06,451.253,106.06Z" transform="translate(-343.613 -71.068)" fill="#706f6f"/>
      </g>
      <path id="Path_2385" data-name="Path 2385" d="M95.5,48.244a16.142,16.142,0,0,0,10.313-15.2A16.582,16.582,0,0,0,89.267,16.46H79.739c-.415,0-.6.175-.6.572v.7c0,.4.185.572.6.572h9.528a14.733,14.733,0,0,1,14.7,14.736A14.385,14.385,0,0,1,89.378,47.533v0H79.716c-.415,0-.6.175-.6.572v.7c0,.4.185.572.6.572H90.7a15.174,15.174,0,0,1,15.063,15.257A14.813,14.813,0,0,1,90.759,79.58H70.945l.088-53.306c0-.014,0-.023,0-.037l0-1.883a.194.194,0,0,0-.129-.185.192.192,0,0,0-.217.055l-1.242,1.422c-.009.009-.018.014-.023.023L16.725,85.9h0l-.069.078a.076.076,0,0,0-.009.092.064.064,0,0,0,.037.032.179.179,0,0,0,.069.009H19l50.19-57.373L69.1,80.5a.941.941,0,0,0,.268.656.91.91,0,0,0,.656.272H90.763a16.839,16.839,0,0,0,16.854-16.785A17.1,17.1,0,0,0,95.5,48.244Z" transform="translate(-10.302 -11.631)" fill="#9a85a8"/>
      <path id="Path_2386" data-name="Path 2386" d="M102.561,48.86a11.147,11.147,0,0,0,5.983-9.842A11.322,11.322,0,0,0,97.386,27.56H87.378c-.42,0-.6.175-.6.572v.706c0,.4.185.572.6.572H97.386a9.462,9.462,0,0,1-.129,18.923h-9.9c-.415,0-.6.175-.6.572v.7c0,.4.185.572.6.572H97.7a20.256,20.256,0,0,1,20.414,20.044c0,11.241-8.6,20.044-19.583,20.044l-25.464-.051.679-44.558c0-.018-.009-.037-.009-.06l.028-1.865a.206.206,0,0,0-.134-.2.214.214,0,0,0-.235.055L63.843,54.451l-29.4,33.4-3.61,4.1a.076.076,0,0,0-.009.092.064.064,0,0,0,.037.032.179.179,0,0,0,.069.009h2.253l.014-.014L71.867,48.14l-.656,42.988a.92.92,0,0,0,.263.66.931.931,0,0,0,.656.277l26.4.051c12.017,0,21.429-9.616,21.429-21.891A22,22,0,0,0,102.561,48.86Z" transform="translate(-17.936 -17.607)" fill="#588dac"/>
    </g>
    <g id="Back_button" data-name="Back button" transform="translate(37 176)">
      <text id="Back" transform="translate(16.5)" fill="#706f6f" font-size="22" font-family="Muli-Regular, Muli" letter-spacing="-0.01em"><tspan x="0" y="22">Back</tspan></text>
      <g id="Group_1345" data-name="Group 1345" transform="translate(0.5 20.92) rotate(-90)">
        <path id="Path_1229" data-name="Path 1229" d="M.2,6.833,6.423.233a.742.742,0,0,1,1.08,0l6.221,6.6A.742.742,0,1,1,12.645,7.85L6.963,1.823,1.282,7.85A.742.742,0,0,1,.2,6.833Z" transform="translate(0)" fill="#706f6f"/>
      </g>
      <line id="Line_99" data-name="Line 99" x2="67" transform="translate(0 30)" fill="none" stroke="#707070" stroke-width="1"/>
    </g>
    <text id="Apply" transform="translate(37 226)" fill="#706f6f" font-size="70" font-family="Muli-Regular, Muli" letter-spacing="-0.03em"><tspan x="0" y="70">APPLY</tspan></text>
    <rect id="Rectangle_254" data-name="Rectangle 254" width="1368" height="626" transform="translate(-2 1211)" fill="#f7f7f7"/>
    <text id="We_look_for_charities_which_have_or_are_working_towards_the_following_qualities:" data-name="We look for charities which have, or are working towards, the following qualities:" transform="translate(37 1346)" fill="#706f6f" font-size="28" font-family="Muli-Light, Muli" font-weight="300" letter-spacing="-0.005em"><tspan x="0" y="28">We look for charities which have, or are working </tspan><tspan x="0" y="60">towards, the following qualities:</tspan></text>
    <text id="What_we_look_for_in_partner_grantees_" data-name="What we look for in partner grantees " transform="translate(37 1245)" fill="#60a797" font-size="60" font-family="Muli-Light, Muli" font-weight="300" letter-spacing="-0.015em"><tspan x="0" y="60">What we look for in partner grantees </tspan></text>
    <text id="_Delivers_effective_work_and_can_demonstrate_the_difference_it_makes_Listens_to_the_people_it_seeks_to_support_about_their_needs_and_amends_its_work_accordingly_Is_well_run_makes_best_use_of_resources_and_follows_best_practice_e.g._in_governance" data-name="•	Delivers effective work and can demonstrate the difference it makes

•	Listens to the people it seeks to support about their needs, and amends its work accordingly 

•	Is well run, makes best use of resources and follows best practice (e.g. in governance" transform="translate(37 1449)" fill="#706f6f" font-size="22" font-family="Muli-Light, Muli" font-weight="300" letter-spacing="-0.01em"><tspan x="0" y="22">•	Delivers effective work and </tspan><tspan x="0" y="47">can demonstrate the difference it </tspan><tspan x="0" y="72">makes</tspan><tspan x="0" y="97"></tspan><tspan x="0" y="122">•	Listens to the people it seeks </tspan><tspan x="0" y="147">to support about their needs, and </tspan><tspan x="0" y="172">amends its work accordingly </tspan><tspan x="0" y="197"></tspan><tspan x="0" y="222">•	Is well run, makes best use of </tspan><tspan x="0" y="247">resources and follows best practice </tspan><tspan x="0" y="272">(e.g. in governance, financial </tspan><tspan x="0" y="297">management, safeguarding) </tspan></text>
    <text id="_Works_well_with_others_in_the_geographical_or_policy_area_is_happy_to_combine_knowledge_and_resources_where_helpful_and_avoids_duplication_Shares_knowledge_where_possible_e.g._with_colleagues_in_the_sector_or_to_influence_attitudes_to_an_issue_or_" data-name="•	Works well with others in the geographical or policy area (is happy to combine knowledge and resources where helpful and avoids duplication)

•	Shares knowledge where possible (e.g. with colleagues in the sector, or to influence attitudes to an issue or " transform="translate(473 1449)" fill="#706f6f" font-size="22" font-family="Muli-Light, Muli" font-weight="300" letter-spacing="-0.01em"><tspan x="0" y="22">•	Works well with others in the </tspan><tspan x="0" y="47">geographical or policy area (is happy </tspan><tspan x="0" y="72">to combine knowledge and resources </tspan><tspan x="0" y="97">where helpful and avoids duplication)</tspan><tspan x="0" y="122"></tspan><tspan x="0" y="147">•	Shares knowledge where </tspan><tspan x="0" y="172">possible (e.g. with colleagues in the </tspan><tspan x="0" y="197">sector, or to influence attitudes to an </tspan><tspan x="0" y="222">issue or to influence policy)</tspan><tspan x="0" y="247"></tspan><tspan x="0" y="272">•	Would make best use of a </tspan><tspan x="0" y="297">grant from ABCT (i.e. where the grant </tspan><tspan x="0" y="322">would make a positive difference)</tspan></text>
    <text id="This_is_not_a_checklist_of_qualities_we_will_look_for_in_an_application_but_reflects_our_wish_to_work_with_partners_who_aim_to_follow_best_practice_and_achieve_real_impact._We_are_likely_to_be_most_interested_in_applications_from_organisations_who_are_achi" data-name="This is not a checklist of qualities we will look for in an application but reflects our wish to work with partners who aim to follow best practice and achieve real impact. We are likely to be most interested in applications from organisations who are achi" transform="translate(909 1449)" fill="#706f6f" font-size="22" font-family="Muli-Light, Muli" font-weight="300" letter-spacing="-0.01em"><tspan x="0" y="22">This is not a checklist of qualities we will </tspan><tspan x="0" y="47">look for in an application but reflects our </tspan><tspan x="0" y="72">wish to work with partners who aim to </tspan><tspan x="0" y="97">follow best practice and achieve real </tspan><tspan x="0" y="122">impact. We are likely to be most interested </tspan><tspan x="0" y="147">in applications from organisations who are </tspan><tspan x="0" y="172">achieving or consciously making steps </tspan><tspan x="0" y="197">towards the above, recognising that this is </tspan><tspan x="0" y="222">likely to be an ongoing journey. </tspan><tspan x="0" y="247"></tspan><tspan x="0" y="272">Visit our </tspan><tspan y="272" text-decoration="underline">grantees</tspan><tspan y="272" xml:space="preserve"> page for information on </tspan><tspan x="0" y="297">the charities and work that we have </tspan><tspan x="0" y="322">funded in the past.</tspan></text>
    <g id="_768_More_info_button" data-name="768 – More info button" transform="translate(637.516 1894)">
      <path id="Path_2387" data-name="Path 2387" d="M2.207,0h86.07c1.219,0,2.207,2.239,2.207,5V40c0,2.761-.988,5-2.207,5H2.207C.988,45,0,42.761,0,40V5C0,2.239.988,0,2.207,0Z" fill="#60a797"/>
      <text id="Next" transform="translate(11 9.5)" fill="#fff" font-size="20" font-family="Muli-Light, Muli" font-weight="300" letter-spacing="-0.01em"><tspan x="0" y="20">Next</tspan></text>
      <g id="Group_1345-2" data-name="Group 1345" transform="translate(84.63 31.281) rotate(-90)">
        <path id="Path_1229-2" data-name="Path 1229" d="M.189,1.17,6.011,7.346a.694.694,0,0,0,1.01,0L12.843,1.17a.694.694,0,1,0-1.01-.952L6.516,5.858,1.2.218a.694.694,0,0,0-1.01.952Z" transform="translate(1 -17)" fill="#fff"/>
      </g>
    </g>
    <g id="Component_6" data-name="Component 6" transform="translate(0 2003)">
      <rect id="Rectangle_14" data-name="Rectangle 14" width="1366" height="147" fill="#f7f7f7"/>
      <text id="The_A_B_Charitable_Trust_c_o_Woodsford_3rd_Floor_8_Bloomsbury_St_London_WC1B_3SR" data-name="The A B Charitable Trust
c/o Woodsford 3rd Floor
8 Bloomsbury St 
London WC1B 3SR" transform="translate(255 19)" fill="#707070" font-size="18" font-family="Muli-Light, Muli" font-weight="300"><tspan x="0" y="18">The A B Charitable Trust</tspan><tspan x="0" y="41">c/o Woodsford 3rd Floor</tspan><tspan x="0" y="64">8 Bloomsbury St </tspan><tspan x="0" y="87">London WC1B 3SR</tspan></text>
      <text id="T:_020_7243_9486_E:_mail_abcharitabletrust.org.uk_Registered_charity_number_100147" data-name="T: 020 7243 9486
E: mail@abcharitabletrust.org.uk

Registered charity number 100147" transform="translate(558 19)" fill="#707070" font-size="18" font-family="Muli-Light, Muli" font-weight="300"><tspan x="0" y="18">T: 020 7243 9486</tspan><tspan x="0" y="41">E: mail@abcharitabletrust.org.uk</tspan><tspan x="0" y="64"></tspan><tspan x="0" y="87">Registered charity number 100147</tspan></text>
      <text id="Help_Advice" data-name="Help &amp; Advice" transform="translate(61 19)" fill="#707070" font-size="18" font-family="Muli-Light, Muli" font-weight="300"><tspan x="0" y="18">Help &amp; Advice</tspan></text>
      <text id="FAQs" transform="translate(61 43)" fill="#707070" font-size="18" font-family="Muli-Light, Muli" font-weight="300"><tspan x="0" y="18">FAQs</tspan></text>
      <text id="Contact" transform="translate(61 66)" fill="#707070" font-size="18" font-family="Muli-Light, Muli" font-weight="300"><tspan x="0" y="18">Contact</tspan></text>
    </g>
    <line id="Line_111" data-name="Line 111" x1="413" y2="476" transform="translate(124.5 251.5)" fill="none" stroke="#fff" stroke-width="4"/>
    <text id="Migrants_refugees_and_asylum_seekers" data-name="Migrants, refugees and asylum seekers" transform="translate(37 316)" fill="#60a797" font-size="38" font-family="Muli-Regular, Muli" letter-spacing="-0.01em"><tspan x="0" y="38">MIGRANTS, REFUGEES AND ASYLUM SEEKERS</tspan></text>
    <rect id="Rectangle_250" data-name="Rectangle 250" width="1368" height="567" transform="translate(-2 587)" fill="#f7f7f7"/>
    <text id="ABCT_usually_looks_to_fund_single_focus_organisations_working_solely_in_this_priority_area._For_these_organisations_core_funding_unrestricted_grants_or_project_funding_restricted_grants_are_both_available._Please_apply_for_the_type_of_grant_which_woul" data-name="ABCT usually looks to fund single focus organisations working solely in this priority area. For these organisations, core funding (unrestricted grants) or project funding (restricted grants) are both available. Please apply for the type of grant which woul" transform="translate(473 717)" fill="#706f6f" font-size="22" font-family="Muli-Light, Muli" font-weight="300" letter-spacing="-0.01em"><tspan x="0" y="22">ABCT usually looks to fund single focus organisations </tspan><tspan x="0" y="47">working solely in this priority area. For these </tspan><tspan x="0" y="72">organisations, core funding (unrestricted grants) or </tspan><tspan x="0" y="97">project funding (restricted grants) are both available. </tspan><tspan x="0" y="122">Please apply for the type of grant which would most </tspan><tspan x="0" y="147">benefit your organisation at the current time.</tspan><tspan x="0" y="172"></tspan><tspan x="0" y="197">On occasion we also accept restricted grant </tspan><tspan x="0" y="222">applications from charities working more broadly, </tspan><tspan x="0" y="247">where the project is particularly focused, forms a </tspan><tspan x="0" y="272">significant strand, and the charity can show it is best </tspan><tspan x="0" y="297">placed to deliver the work.</tspan></text>
    <text id="The_A_B_Charitable_Trust_is_looking_to_work_with_charities_which:_" data-name="The A B Charitable Trust is looking to work with charities which: " transform="translate(37 717)" fill="#706f6f" font-size="28" font-family="Muli-Light, Muli" font-weight="300" letter-spacing="-0.005em"><tspan x="0" y="28">The A B Charitable Trust is </tspan><tspan x="0" y="60">looking to work with charities </tspan><tspan x="0" y="92">which: </tspan></text>
    <text id="_Deliver_services_directly_targeting_migrant_communities_refugees_and_asylum_seekers_Work_to_influence_policy_and_or_counter_negative_narrative_Strengthen_the_voluntary_sector_and_support_charities_delivering_work_in_this_area" data-name="•	Deliver services directly targeting migrant communities, refugees and asylum seekers
 
•	Work to influence policy and /or counter negative narrative 

•	Strengthen the voluntary sector and support charities delivering work in this area" transform="translate(37 839)" fill="#706f6f" font-size="22" font-family="Muli-Light, Muli" font-weight="300" letter-spacing="-0.01em"><tspan x="0" y="22">•	Deliver services directly </tspan><tspan x="0" y="47">targeting migrant communities, </tspan><tspan x="0" y="72">refugees and asylum seekers</tspan><tspan x="0" y="97"> </tspan><tspan x="0" y="122">•	Work to influence policy and /</tspan><tspan x="0" y="147">or counter negative narrative </tspan><tspan x="0" y="172"></tspan><tspan x="0" y="197">•	Strengthen the voluntary </tspan><tspan x="0" y="222">sector and support charities delivering </tspan><tspan x="0" y="247">work in this area</tspan></text>
    <g id="Mask_Group_74" data-name="Mask Group 74" transform="translate(598 -913)" clip-path="url(#clip-path)">
      <g id="Group_6675" data-name="Group 6675" transform="translate(-223.585)">
        <g id="Group_6624" data-name="Group 6624" transform="translate(1566.437 1315.382)">
          <path id="Path_5086" data-name="Path 5086" d="M0,0-1082.945,1245.786" fill="none" stroke="#60a797" stroke-width="1.995"/>
        </g>
        <g id="Group_6625" data-name="Group 6625" transform="translate(1591.345 1337.034)">
          <path id="Path_5087" data-name="Path 5087" d="M0,0-1082.945,1245.786" fill="none" stroke="#60a797" stroke-width="1.995"/>
        </g>
        <g id="Group_6626" data-name="Group 6626" transform="translate(1628.708 1369.513)">
          <path id="Path_5088" data-name="Path 5088" d="M0,0-1082.945,1245.786" fill="none" stroke="#60a797" stroke-width="1.995"/>
        </g>
        <g id="Group_6627" data-name="Group 6627" transform="translate(1572.665 1320.795)">
          <path id="Path_5089" data-name="Path 5089" d="M0,0-1082.945,1245.786" fill="none" stroke="#60a797" stroke-width="1.995"/>
        </g>
        <g id="Group_6628" data-name="Group 6628" transform="translate(1603.799 1347.86)">
          <path id="Path_5090" data-name="Path 5090" d="M0,0-1082.945,1245.786" fill="none" stroke="#60a797" stroke-width="1.995"/>
        </g>
        <g id="Group_6629" data-name="Group 6629" transform="translate(1634.934 1374.926)">
          <path id="Path_5091" data-name="Path 5091" d="M0,0-1082.945,1245.786" fill="none" stroke="#60a797" stroke-width="1.995"/>
        </g>
        <g id="Group_6630" data-name="Group 6630" transform="translate(1645.934 1374.926)">
          <path id="Path_5092" data-name="Path 5092" d="M0,0-1082.945,1245.786" fill="none" stroke="#60a797" stroke-width="1.995"/>
        </g>
        <g id="Group_6631" data-name="Group 6631" transform="translate(1578.891 1326.208)">
          <path id="Path_5093" data-name="Path 5093" d="M0,0-1082.945,1245.786" fill="none" stroke="#60a797" stroke-width="1.995"/>
        </g>
        <g id="Group_6632" data-name="Group 6632" transform="translate(1610.026 1353.273)">
          <path id="Path_5094" data-name="Path 5094" d="M0,0-1082.945,1245.786" fill="none" stroke="#60a797" stroke-width="1.995"/>
        </g>
        <g id="Group_6633" data-name="Group 6633" transform="translate(1541.53 1293.73)">
          <path id="Path_5095" data-name="Path 5095" d="M0,0-1082.945,1245.786" fill="none" stroke="#60a797" stroke-width="1.995"/>
        </g>
        <g id="Group_6634" data-name="Group 6634" transform="translate(1585.119 1331.622)">
          <path id="Path_5096" data-name="Path 5096" d="M0,0-1082.945,1245.786" fill="none" stroke="#60a797" stroke-width="1.995"/>
        </g>
        <g id="Group_6635" data-name="Group 6635" transform="translate(1616.253 1358.687)">
          <path id="Path_5097" data-name="Path 5097" d="M0,0-1082.945,1245.786" fill="none" stroke="#60a797" stroke-width="1.995"/>
        </g>
        <g id="Group_6636" data-name="Group 6636" transform="translate(1553.983 1304.556)">
          <path id="Path_5098" data-name="Path 5098" d="M0,0-1082.945,1245.786" fill="none" stroke="#60a797" stroke-width="1.995"/>
        </g>
        <g id="Group_6637" data-name="Group 6637" transform="translate(1597.572 1342.447)">
          <path id="Path_5099" data-name="Path 5099" d="M0,0-1082.945,1245.786" fill="none" stroke="#60a797" stroke-width="1.995"/>
        </g>
        <g id="Group_6638" data-name="Group 6638" transform="translate(1622.48 1364.1)">
          <path id="Path_5100" data-name="Path 5100" d="M0,0-1082.945,1245.786" fill="none" stroke="#60a797" stroke-width="1.995"/>
        </g>
        <g id="Group_6639" data-name="Group 6639" transform="translate(1547.756 1299.143)">
          <path id="Path_5101" data-name="Path 5101" d="M0,0-1082.945,1245.786" fill="none" stroke="#60a797" stroke-width="1.995"/>
        </g>
        <g id="Group_6640" data-name="Group 6640" transform="translate(1560.21 1309.969)">
          <path id="Path_5102" data-name="Path 5102" d="M0,0-1082.945,1245.786" fill="none" stroke="#60a797" stroke-width="1.995"/>
        </g>
        <g id="Group_6641" data-name="Group 6641" transform="translate(1380.437 1315.382)">
          <path id="Path_5103" data-name="Path 5103" d="M0,0-1082.945,1245.786" fill="none" stroke="#60a797" stroke-width="1.995"/>
        </g>
        <g id="Group_6642" data-name="Group 6642" transform="translate(1405.345 1337.034)">
          <path id="Path_5104" data-name="Path 5104" d="M0,0-1082.945,1245.786" fill="none" stroke="#60a797" stroke-width="1.995"/>
        </g>
        <g id="Group_6643" data-name="Group 6643" transform="translate(1442.708 1369.513)">
          <path id="Path_5105" data-name="Path 5105" d="M0,0-1082.945,1245.786" fill="none" stroke="#60a797" stroke-width="1.995"/>
        </g>
        <g id="Group_6644" data-name="Group 6644" transform="translate(1386.665 1320.795)">
          <path id="Path_5106" data-name="Path 5106" d="M0,0-1082.945,1245.786" fill="none" stroke="#60a797" stroke-width="1.995"/>
        </g>
        <g id="Group_6645" data-name="Group 6645" transform="translate(1417.799 1347.86)">
          <path id="Path_5107" data-name="Path 5107" d="M0,0-1082.945,1245.786" fill="none" stroke="#60a797" stroke-width="1.995"/>
        </g>
        <g id="Group_6646" data-name="Group 6646" transform="translate(1448.934 1374.926)">
          <path id="Path_5108" data-name="Path 5108" d="M0,0-1082.945,1245.786" fill="none" stroke="#60a797" stroke-width="1.995"/>
        </g>
        <g id="Group_6647" data-name="Group 6647" transform="translate(1459.934 1374.926)">
          <path id="Path_5109" data-name="Path 5109" d="M0,0-1082.945,1245.786" fill="none" stroke="#60a797" stroke-width="1.995"/>
        </g>
        <g id="Group_6648" data-name="Group 6648" transform="translate(1392.891 1326.208)">
          <path id="Path_5110" data-name="Path 5110" d="M0,0-1082.945,1245.786" fill="none" stroke="#60a797" stroke-width="1.995"/>
        </g>
        <g id="Group_6649" data-name="Group 6649" transform="translate(1424.026 1353.273)">
          <path id="Path_5111" data-name="Path 5111" d="M0,0-1082.945,1245.786" fill="none" stroke="#60a797" stroke-width="1.995"/>
        </g>
        <g id="Group_6650" data-name="Group 6650" transform="translate(1355.53 1293.73)">
          <path id="Path_5112" data-name="Path 5112" d="M0,0-1082.945,1245.786" fill="none" stroke="#60a797" stroke-width="1.995"/>
        </g>
        <g id="Group_6651" data-name="Group 6651" transform="translate(1399.119 1331.622)">
          <path id="Path_5113" data-name="Path 5113" d="M0,0-1082.945,1245.786" fill="none" stroke="#60a797" stroke-width="1.995"/>
        </g>
        <g id="Group_6652" data-name="Group 6652" transform="translate(1430.253 1358.687)">
          <path id="Path_5114" data-name="Path 5114" d="M0,0-1082.945,1245.786" fill="none" stroke="#60a797" stroke-width="1.995"/>
        </g>
        <g id="Group_6653" data-name="Group 6653" transform="translate(1367.983 1304.556)">
          <path id="Path_5115" data-name="Path 5115" d="M0,0-1082.945,1245.786" fill="none" stroke="#60a797" stroke-width="1.995"/>
        </g>
        <g id="Group_6654" data-name="Group 6654" transform="translate(1411.572 1342.447)">
          <path id="Path_5116" data-name="Path 5116" d="M0,0-1082.945,1245.786" fill="none" stroke="#60a797" stroke-width="1.995"/>
        </g>
        <g id="Group_6655" data-name="Group 6655" transform="translate(1436.48 1364.1)">
          <path id="Path_5117" data-name="Path 5117" d="M0,0-1082.945,1245.786" fill="none" stroke="#60a797" stroke-width="1.995"/>
        </g>
        <g id="Group_6656" data-name="Group 6656" transform="translate(1361.756 1299.143)">
          <path id="Path_5118" data-name="Path 5118" d="M0,0-1082.945,1245.786" fill="none" stroke="#60a797" stroke-width="1.995"/>
        </g>
        <g id="Group_6657" data-name="Group 6657" transform="translate(1374.21 1309.969)">
          <path id="Path_5119" data-name="Path 5119" d="M0,0-1082.945,1245.786" fill="none" stroke="#60a797" stroke-width="1.995"/>
        </g>
        <g id="Group_6658" data-name="Group 6658" transform="translate(1194.437 1315.382)">
          <path id="Path_5120" data-name="Path 5120" d="M0,0-1082.945,1245.786" fill="none" stroke="#60a797" stroke-width="1.995"/>
        </g>
        <g id="Group_6659" data-name="Group 6659" transform="translate(1219.345 1337.034)">
          <path id="Path_5121" data-name="Path 5121" d="M0,0-1082.945,1245.786" fill="none" stroke="#60a797" stroke-width="1.995"/>
        </g>
        <g id="Group_6660" data-name="Group 6660" transform="translate(1256.708 1369.513)">
          <path id="Path_5122" data-name="Path 5122" d="M0,0-1082.945,1245.786" fill="none" stroke="#60a797" stroke-width="1.995"/>
        </g>
        <g id="Group_6661" data-name="Group 6661" transform="translate(1200.665 1320.795)">
          <path id="Path_5123" data-name="Path 5123" d="M0,0-1082.945,1245.786" fill="none" stroke="#60a797" stroke-width="1.995"/>
        </g>
        <g id="Group_6662" data-name="Group 6662" transform="translate(1231.799 1347.86)">
          <path id="Path_5124" data-name="Path 5124" d="M0,0-1082.945,1245.786" fill="none" stroke="#60a797" stroke-width="1.995"/>
        </g>
        <g id="Group_6663" data-name="Group 6663" transform="translate(1262.934 1374.926)">
          <path id="Path_5125" data-name="Path 5125" d="M0,0-1082.945,1245.786" fill="none" stroke="#60a797" stroke-width="1.995"/>
        </g>
        <g id="Group_6664" data-name="Group 6664" transform="translate(1273.934 1374.926)">
          <path id="Path_5126" data-name="Path 5126" d="M0,0-1082.945,1245.786" fill="none" stroke="#60a797" stroke-width="1.995"/>
        </g>
        <g id="Group_6665" data-name="Group 6665" transform="translate(1206.891 1326.208)">
          <path id="Path_5127" data-name="Path 5127" d="M0,0-1082.945,1245.786" fill="none" stroke="#60a797" stroke-width="1.995"/>
        </g>
        <g id="Group_6666" data-name="Group 6666" transform="translate(1238.026 1353.273)">
          <path id="Path_5128" data-name="Path 5128" d="M0,0-1082.945,1245.786" fill="none" stroke="#60a797" stroke-width="1.995"/>
        </g>
        <g id="Group_6667" data-name="Group 6667" transform="translate(1169.53 1293.73)">
          <path id="Path_5129" data-name="Path 5129" d="M0,0-1082.945,1245.786" fill="none" stroke="#60a797" stroke-width="1.995"/>
        </g>
        <g id="Group_6668" data-name="Group 6668" transform="translate(1213.119 1331.622)">
          <path id="Path_5130" data-name="Path 5130" d="M0,0-1082.945,1245.786" fill="none" stroke="#60a797" stroke-width="1.995"/>
        </g>
        <g id="Group_6669" data-name="Group 6669" transform="translate(1244.253 1358.687)">
          <path id="Path_5131" data-name="Path 5131" d="M0,0-1082.945,1245.786" fill="none" stroke="#60a797" stroke-width="1.995"/>
        </g>
        <g id="Group_6670" data-name="Group 6670" transform="translate(1181.983 1304.556)">
          <path id="Path_5132" data-name="Path 5132" d="M0,0-1082.945,1245.786" fill="none" stroke="#60a797" stroke-width="1.995"/>
        </g>
        <g id="Group_6671" data-name="Group 6671" transform="translate(1225.572 1342.447)">
          <path id="Path_5133" data-name="Path 5133" d="M0,0-1082.945,1245.786" fill="none" stroke="#60a797" stroke-width="1.995"/>
        </g>
        <g id="Group_6672" data-name="Group 6672" transform="translate(1250.48 1364.1)">
          <path id="Path_5134" data-name="Path 5134" d="M0,0-1082.945,1245.786" fill="none" stroke="#60a797" stroke-width="1.995"/>
        </g>
        <g id="Group_6673" data-name="Group 6673" transform="translate(1175.756 1299.143)">
          <path id="Path_5135" data-name="Path 5135" d="M0,0-1082.945,1245.786" fill="none" stroke="#60a797" stroke-width="1.995"/>
        </g>
        <g id="Group_6674" data-name="Group 6674" transform="translate(1188.21 1309.969)">
          <path id="Path_5136" data-name="Path 5136" d="M0,0-1082.945,1245.786" fill="none" stroke="#60a797" stroke-width="1.995"/>
        </g>
      </g>
    </g>
    <text id="Priorities-2" data-name="Priorities" transform="translate(37 615)" fill="#60a797" font-size="60" font-family="Muli-Light, Muli" font-weight="300" letter-spacing="-0.015em"><tspan x="0" y="60">Priorities</tspan></text>
    <g id="Component_6-2" data-name="Component 6" transform="translate(695 36)">
      <text id="About_us" data-name="About us" fill="#706f6f" font-size="20" font-family="Muli-Regular, Muli"><tspan x="4.33" y="20">About us</tspan></text>
      <text id="Our_priorities" data-name="Our priorities" transform="translate(124)" fill="#706f6f" font-size="20" font-family="Muli-Regular, Muli"><tspan x="5.78" y="20">Our priorities</tspan></text>
      <text id="Grantees" transform="translate(452)" fill="#706f6f" font-size="20" font-family="Muli-Regular, Muli"><tspan x="2.48" y="20">Grantees</tspan></text>
      <text id="How_we_fund" data-name="How we fund" transform="translate(287)" fill="#706f6f" font-size="20" font-family="Muli-Regular, Muli"><tspan x="4.21" y="20">How we fund</tspan></text>
      <text id="Apply-2" data-name="Apply" transform="translate(573)" fill="#706f6f" font-size="20" font-family="Muli-ExtraBold, Muli" font-weight="800"><tspan x="2.05" y="20">Apply</tspan></text>
    </g>
  </g>
</svg>
